sim/processor.vcd
$version Generated by VerilatedVcd $end
$timescale 1ps $end
 $scope module TOP $end
  $scope module riscv_pkg $end
   $var wire 32 :" XLEN [31:0] $end
   $var wire 32 ;" ILEN [31:0] $end
   $var wire 7 <" OP_LOAD [6:0] $end
   $var wire 7 =" OP_STORE [6:0] $end
   $var wire 7 >" OP_BRANCH [6:0] $end
   $var wire 7 ?" OP_JAL [6:0] $end
   $var wire 7 @" OP_JALR [6:0] $end
   $var wire 7 A" OP_IMM [6:0] $end
   $var wire 7 B" OP_IMM_W [6:0] $end
   $var wire 7 C" OP_REG [6:0] $end
   $var wire 7 D" OP_REG_W [6:0] $end
   $var wire 7 E" OP_LUI [6:0] $end
   $var wire 7 F" OP_AUIPC [6:0] $end
   $var wire 7 G" OP_SYSTEM [6:0] $end
   $var wire 3 H" F3_BEQ [2:0] $end
   $var wire 3 I" F3_BNE [2:0] $end
   $var wire 3 J" F3_BLT [2:0] $end
   $var wire 3 K" F3_BGE [2:0] $end
   $var wire 3 L" F3_BLTU [2:0] $end
   $var wire 3 M" F3_BGEU [2:0] $end
   $var wire 3 H" F3_BYTE [2:0] $end
   $var wire 3 I" F3_HALF [2:0] $end
   $var wire 3 N" F3_WORD [2:0] $end
   $var wire 3 O" F3_DOUBLE [2:0] $end
   $var wire 3 J" F3_BYTEU [2:0] $end
   $var wire 3 K" F3_HALFU [2:0] $end
   $var wire 3 L" F3_WORDU [2:0] $end
   $var wire 3 H" F3_ADD_SUB [2:0] $end
   $var wire 3 I" F3_SLL [2:0] $end
   $var wire 3 N" F3_SLT [2:0] $end
   $var wire 3 O" F3_SLTU [2:0] $end
   $var wire 3 J" F3_XOR [2:0] $end
   $var wire 3 K" F3_SRL_SRA [2:0] $end
   $var wire 3 L" F3_OR [2:0] $end
   $var wire 3 M" F3_AND [2:0] $end
   $var wire 7 P" F7_NORMAL [6:0] $end
   $var wire 7 Q" F7_ALT [6:0] $end
   $var wire 7 R" F7_ZBA_SH [6:0] $end
   $var wire 7 S" F7_ZBA_UW [6:0] $end
   $var wire 6 T" F6_SLLI_UW [5:0] $end
   $var wire 32 U" NOP_INSTR [31:0] $end
  $upscope $end
  $scope module tb_processor $end
   $var wire 32 1" CLK_PERIOD [31:0] $end
   $var wire 32 2" TIMEOUT_CYCLES [31:0] $end
   $var wire 32 3" IMEM_SIZE [31:0] $end
   $var wire 32 4" DMEM_SIZE [31:0] $end
   $var wire 1 #" clk $end
   $var wire 1 $" rst_n $end
   $var wire 64 # imem_addr [63:0] $end
   $var wire 32 %" imem_rdata [31:0] $end
   $var wire 64 % dmem_addr [63:0] $end
   $var wire 64 ' dmem_wdata [63:0] $end
   $var wire 8 ) dmem_byte_en [7:0] $end
   $var wire 1 * dmem_wen $end
   $var wire 64 &" dmem_rdata [63:0] $end
   $var wire 1 + ecall $end
   $var wire 32 , cycle_count [31:0] $end
   $scope module u_dmem $end
    $var wire 32 4" MEM_SIZE [31:0] $end
    $var wire 1 #" clk $end
    $var wire 64 % addr [63:0] $end
    $var wire 64 ' wdata [63:0] $end
    $var wire 8 ) byte_en [7:0] $end
    $var wire 1 * wen $end
    $var wire 64 &" rdata [63:0] $end
    $scope module unnamedblk1 $end
     $var wire 32 (" i [31:0] $end
    $upscope $end
   $upscope $end
   $scope module u_dut $end
    $var wire 1 #" clk $end
    $var wire 1 $" rst_n $end
    $var wire 64 # imem_addr [63:0] $end
    $var wire 32 %" imem_rdata [31:0] $end
    $var wire 64 % dmem_addr [63:0] $end
    $var wire 64 ' dmem_wdata [63:0] $end
    $var wire 8 ) dmem_byte_en [7:0] $end
    $var wire 1 * dmem_wen $end
    $var wire 64 &" dmem_rdata [63:0] $end
    $var wire 1 + ecall_o $end
    $var wire 64 # if_pc [63:0] $end
    $var wire 32 %" if_instr [31:0] $end
    $var wire 1 5" if_valid $end
    $var wire 97 - if_id_reg [96:0] $end
    $var wire 64 1 id_rs1_data [63:0] $end
    $var wire 64 3 id_rs2_data [63:0] $end
    $var wire 64 5 id_imm [63:0] $end
    $var wire 5 7 id_rs1_addr [4:0] $end
    $var wire 5 8 id_rs2_addr [4:0] $end
    $var wire 5 9 id_rd_addr [4:0] $end
    $var wire 3 : id_funct3 [2:0] $end
    $var wire 21 ; id_ctrl [20:0] $end
    $var wire 1 < id_ecall $end
    $var wire 296 = id_ex_reg [295:0] $end
    $var wire 64 G ex_alu_result [63:0] $end
    $var wire 64 I ex_branch_target [63:0] $end
    $var wire 64 K ex_jalr_target [63:0] $end
    $var wire 1 M ex_branch_taken $end
    $var wire 1 N ex_jump $end
    $var wire 209 O ex_mem_reg [208:0] $end
    $var wire 64 )" mem_rdata [63:0] $end
    $var wire 136 V mem_wb_reg [135:0] $end
    $var wire 5 [ wb_rd_addr [4:0] $end
    $var wire 64 \ wb_rd_data [63:0] $end
    $var wire 1 ^ wb_rd_wen $end
    $var wire 1 _ stall_if $end
    $var wire 1 _ stall_id $end
    $var wire 1 ` flush_id $end
    $var wire 1 a flush_ex $end
    $scope module u_ex_mem_reg $end
     $var wire 1 #" clk $end
     $var wire 1 $" rst_n $end
     $var wire 64 b pc_in [63:0] $end
     $var wire 64 G alu_result_in [63:0] $end
     $var wire 64 d rs2_data_in [63:0] $end
     $var wire 5 f rd_addr_in [4:0] $end
     $var wire 3 g funct3_in [2:0] $end
     $var wire 1 h mem_read_in $end
     $var wire 1 i mem_write_in $end
     $var wire 1 j mem_to_reg_in $end
     $var wire 1 k reg_write_in $end
     $var wire 3 l mem_size_in [2:0] $end
     $var wire 1 m mem_unsigned_in $end
     $var wire 1 n valid_in $end
     $var wire 209 O reg_out [208:0] $end
    $upscope $end
    $scope module u_ex_stage $end
     $var wire 296 = id_ex_reg [295:0] $end
     $var wire 64 G alu_result [63:0] $end
     $var wire 64 I branch_target [63:0] $end
     $var wire 64 K jalr_target [63:0] $end
     $var wire 1 M branch_taken $end
     $var wire 1 N jump $end
     $var wire 64 o operand_a [63:0] $end
     $var wire 64 q operand_b [63:0] $end
     $var wire 1 s branch_condition $end
     $scope module u_alu $end
      $var wire 64 o operand_a [63:0] $end
      $var wire 64 q operand_b [63:0] $end
      $var wire 5 t alu_op [4:0] $end
      $var wire 64 G result [63:0] $end
      $var wire 64 u add_result [63:0] $end
      $var wire 64 w sub_result [63:0] $end
      $var wire 32 y word_result [31:0] $end
      $var wire 64 z shift_amount [63:0] $end
      $var wire 5 | shift_amount_w [4:0] $end
     $upscope $end
    $upscope $end
    $scope module u_hazard_unit $end
     $var wire 5 7 rs1_addr_id [4:0] $end
     $var wire 5 8 rs2_addr_id [4:0] $end
     $var wire 5 f rd_addr_ex [4:0] $end
     $var wire 1 k reg_write_ex $end
     $var wire 1 h mem_read_ex $end
     $var wire 1 n valid_ex $end
     $var wire 5 } rd_addr_mem [4:0] $end
     $var wire 1 ~ reg_write_mem $end
     $var wire 1 !! valid_mem $end
     $var wire 5 [ rd_addr_wb [4:0] $end
     $var wire 1 "! reg_write_wb $end
     $var wire 1 #! valid_wb $end
     $var wire 1 M branch_taken $end
     $var wire 1 N jump $end
     $var wire 1 _ stall_if $end
     $var wire 1 _ stall_id $end
     $var wire 1 ` flush_id $end
     $var wire 1 a flush_ex $end
     $var wire 1 $! rs1_hazard_ex $end
     $var wire 1 %! rs2_hazard_ex $end
     $var wire 1 &! rs1_hazard_mem $end
     $var wire 1 '! rs2_hazard_mem $end
     $var wire 1 (! rs1_hazard_wb $end
     $var wire 1 )! rs2_hazard_wb $end
     $var wire 1 _ data_hazard $end
    $upscope $end
    $scope module u_id_ex_reg $end
     $var wire 1 #" clk $end
     $var wire 1 $" rst_n $end
     $var wire 1 a flush $end
     $var wire 64 *! pc_in [63:0] $end
     $var wire 64 1 rs1_data_in [63:0] $end
     $var wire 64 3 rs2_data_in [63:0] $end
     $var wire 64 5 imm_in [63:0] $end
     $var wire 5 7 rs1_addr_in [4:0] $end
     $var wire 5 8 rs2_addr_in [4:0] $end
     $var wire 5 9 rd_addr_in [4:0] $end
     $var wire 3 : funct3_in [2:0] $end
     $var wire 21 ; ctrl_in [20:0] $end
     $var wire 1 ,! valid_in $end
     $var wire 296 = reg_out [295:0] $end
    $upscope $end
    $scope module u_id_stage $end
     $var wire 1 #" clk $end
     $var wire 1 $" rst_n $end
     $var wire 97 - if_id_reg [96:0] $end
     $var wire 5 [ rd_addr_wb [4:0] $end
     $var wire 64 \ rd_data_wb [63:0] $end
     $var wire 1 ^ rd_wen_wb $end
     $var wire 64 1 rs1_data [63:0] $end
     $var wire 64 3 rs2_data [63:0] $end
     $var wire 64 5 imm [63:0] $end
     $var wire 5 7 rs1_addr [4:0] $end
     $var wire 5 8 rs2_addr [4:0] $end
     $var wire 5 9 rd_addr [4:0] $end
     $var wire 3 : funct3 [2:0] $end
     $var wire 21 ; ctrl [20:0] $end
     $var wire 1 < ecall $end
     $var wire 7 -! funct7 [6:0] $end
     $var wire 3 .! imm_type [2:0] $end
     $var wire 1 /! illegal_instr $end
     $scope module u_decoder $end
      $var wire 32 0! instr [31:0] $end
      $var wire 5 7 rs1_addr [4:0] $end
      $var wire 5 8 rs2_addr [4:0] $end
      $var wire 5 9 rd_addr [4:0] $end
      $var wire 3 : funct3 [2:0] $end
      $var wire 7 -! funct7 [6:0] $end
      $var wire 3 .! imm_type [2:0] $end
      $var wire 21 ; ctrl [20:0] $end
      $var wire 1 /! illegal_instr $end
      $var wire 1 < ecall $end
      $var wire 7 1! opcode [6:0] $end
     $upscope $end
     $scope module u_imm_gen $end
      $var wire 32 0! instr [31:0] $end
      $var wire 3 .! imm_type [2:0] $end
      $var wire 64 5 imm [63:0] $end
      $var wire 64 2! imm_i [63:0] $end
      $var wire 64 4! imm_s [63:0] $end
      $var wire 64 6! imm_b [63:0] $end
      $var wire 64 8! imm_u [63:0] $end
      $var wire 64 :! imm_j [63:0] $end
     $upscope $end
     $scope module u_regfile $end
      $var wire 1 #" clk $end
      $var wire 1 $" rst_n $end
      $var wire 5 7 rs1_addr [4:0] $end
      $var wire 5 8 rs2_addr [4:0] $end
      $var wire 64 1 rs1_data [63:0] $end
      $var wire 64 3 rs2_data [63:0] $end
      $var wire 5 [ rd_addr [4:0] $end
      $var wire 64 \ rd_data [63:0] $end
      $var wire 1 ^ rd_wen $end
      $var wire 64 <! registers[1] [63:0] $end
      $var wire 64 >! registers[2] [63:0] $end
      $var wire 64 @! registers[3] [63:0] $end
      $var wire 64 B! registers[4] [63:0] $end
      $var wire 64 D! registers[5] [63:0] $end
      $var wire 64 F! registers[6] [63:0] $end
      $var wire 64 H! registers[7] [63:0] $end
      $var wire 64 J! registers[8] [63:0] $end
      $var wire 64 L! registers[9] [63:0] $end
      $var wire 64 N! registers[10] [63:0] $end
      $var wire 64 P! registers[11] [63:0] $end
      $var wire 64 R! registers[12] [63:0] $end
      $var wire 64 T! registers[13] [63:0] $end
      $var wire 64 V! registers[14] [63:0] $end
      $var wire 64 X! registers[15] [63:0] $end
      $var wire 64 Z! registers[16] [63:0] $end
      $var wire 64 \! registers[17] [63:0] $end
      $var wire 64 ^! registers[18] [63:0] $end
      $var wire 64 `! registers[19] [63:0] $end
      $var wire 64 b! registers[20] [63:0] $end
      $var wire 64 d! registers[21] [63:0] $end
      $var wire 64 f! registers[22] [63:0] $end
      $var wire 64 h! registers[23] [63:0] $end
      $var wire 64 j! registers[24] [63:0] $end
      $var wire 64 l! registers[25] [63:0] $end
      $var wire 64 n! registers[26] [63:0] $end
      $var wire 64 p! registers[27] [63:0] $end
      $var wire 64 r! registers[28] [63:0] $end
      $var wire 64 t! registers[29] [63:0] $end
      $var wire 64 v! registers[30] [63:0] $end
      $var wire 64 x! registers[31] [63:0] $end
      $scope module unnamedblk1 $end
       $var wire 32 +" i [31:0] $end
      $upscope $end
     $upscope $end
    $upscope $end
    $scope module u_if_id_reg $end
     $var wire 1 #" clk $end
     $var wire 1 $" rst_n $end
     $var wire 1 _ stall $end
     $var wire 1 ` flush $end
     $var wire 64 # pc_in [63:0] $end
     $var wire 32 %" instr_in [31:0] $end
     $var wire 1 5" valid_in $end
     $var wire 97 - reg_out [96:0] $end
    $upscope $end
    $scope module u_if_stage $end
     $var wire 1 #" clk $end
     $var wire 1 $" rst_n $end
     $var wire 1 _ stall $end
     $var wire 1 M branch_taken $end
     $var wire 1 N jump $end
     $var wire 1 z! is_jalr $end
     $var wire 64 I branch_target [63:0] $end
     $var wire 64 K jalr_target [63:0] $end
     $var wire 64 # imem_addr [63:0] $end
     $var wire 32 %" imem_rdata [31:0] $end
     $var wire 64 # pc_out [63:0] $end
     $var wire 32 %" instr_out [31:0] $end
     $var wire 1 5" valid_out $end
     $var wire 64 # pc_reg [63:0] $end
     $var wire 64 {! pc_next [63:0] $end
    $upscope $end
    $scope module u_mem_stage $end
     $var wire 209 O ex_mem_reg [208:0] $end
     $var wire 64 % dmem_addr [63:0] $end
     $var wire 64 ' dmem_wdata [63:0] $end
     $var wire 8 ) dmem_byte_en [7:0] $end
     $var wire 1 * dmem_wen $end
     $var wire 64 &" dmem_rdata [63:0] $end
     $var wire 64 )" mem_rdata [63:0] $end
     $var wire 3 }! byte_offset [2:0] $end
     $var wire 64 6" aligned_wdata [63:0] $end
     $var wire 64 ," aligned_rdata [63:0] $end
    $upscope $end
    $scope module u_mem_wb_reg $end
     $var wire 1 #" clk $end
     $var wire 1 $" rst_n $end
     $var wire 64 ~! alu_result_in [63:0] $end
     $var wire 64 )" mem_data_in [63:0] $end
     $var wire 5 } rd_addr_in [4:0] $end
     $var wire 1 "" mem_to_reg_in $end
     $var wire 1 ~ reg_write_in $end
     $var wire 1 !! valid_in $end
     $var wire 136 V reg_out [135:0] $end
    $upscope $end
    $scope module u_wb_stage $end
     $var wire 136 V mem_wb_reg [135:0] $end
     $var wire 5 [ rd_addr [4:0] $end
     $var wire 64 \ rd_data [63:0] $end
     $var wire 1 ^ rd_wen $end
    $upscope $end
   $upscope $end
   $scope module u_imem $end
    $var wire 32 3" MEM_SIZE [31:0] $end
    $var wire 64 8" INIT_FILE [63:0] $end
    $var wire 64 # addr [63:0] $end
    $var wire 32 %" rdata [31:0] $end
    $scope module unnamedblk1 $end
     $var wire 32 ." i [31:0] $end
    $upscope $end
   $upscope $end
   $scope module unnamedblk1 $end
    $var wire 32 /" i [31:0] $end
   $upscope $end
   $scope module unnamedblk2 $end
    $var wire 32 0" i [31:0] $end
   $upscope $end
  $upscope $end
 $upscope $end
$enddefinitions $end


#0
b0000000000000000000000000000000000000000000000000000000000000000 #
b0000000000000000000000000000000000000000000000000000000000000000 %
b0000000000000000000000000000000000000000000000000000000000000000 '
b00000000 )
0*
0+
b00000000000000000000000000000000 ,
b0000000000000000000000000000000000000000000000000000000000000000000000000000000000000000000000000 -
b0000000000000000000000000000000000000000000000000000000000000000 1
b0000000000000000000000000000000000000000000000000000000000000000 3
b0000000000000000000000000000000000000000000000000000000000000000 5
b00000 7
b00000 8
b00000 9
b000 :
b000000000000000000000 ;
0<
b00000000000000000000000000000000000000000000000000000000000000000000000000000000000000000000000000000000000000000000000000000000000000000000000000000000000000000000000000000000000000000000000000000000000000000000000000000000000000000000000000000000000000000000000000000000000000000000000000000000 =
b0000000000000000000000000000000000000000000000000000000000000000 G
b0000000000000000000000000000000000000000000000000000000000000000 I
b0000000000000000000000000000000000000000000000000000000000000000 K
0M
0N
b00000000000000000000000000000000000000000000000000000000000000000000000000000000000000000000000000000000000000000000000000000000000000000000000000000000000000000000000000000000000000000000000000000000000000000 O
b0000000000000000000000000000000000000000000000000000000000000000000000000000000000000000000000000000000000000000000000000000000000000000 V
b00000 [
b0000000000000000000000000000000000000000000000000000000000000000 \
0^
0_
0`
0a
b0000000000000000000000000000000000000000000000000000000000000000 b
b0000000000000000000000000000000000000000000000000000000000000000 d
b00000 f
b000 g
0h
0i
0j
0k
b000 l
0m
0n
b0000000000000000000000000000000000000000000000000000000000000000 o
b0000000000000000000000000000000000000000000000000000000000000000 q
1s
b00000 t
b0000000000000000000000000000000000000000000000000000000000000000 u
b0000000000000000000000000000000000000000000000000000000000000000 w
b00000000000000000000000000000000 y
b0000000000000000000000000000000000000000000000000000000000000000 z
b00000 |
b00000 }
0~
0!!
0"!
0#!
0$!
0%!
0&!
0'!
0(!
0)!
b0000000000000000000000000000000000000000000000000000000000000000 *!
0,!
b0000000 -!
b000 .!
1/!
b00000000000000000000000000000000 0!
b0000000 1!
b0000000000000000000000000000000000000000000000000000000000000000 2!
b0000000000000000000000000000000000000000000000000000000000000000 4!
b0000000000000000000000000000000000000000000000000000000000000000 6!
b0000000000000000000000000000000000000000000000000000000000000000 8!
b0000000000000000000000000000000000000000000000000000000000000000 :!
b0000000000000000000000000000000000000000000000000000000000000000 <!
b0000000000000000000000000000000000000000000000000000000000000000 >!
b0000000000000000000000000000000000000000000000000000000000000000 @!
b0000000000000000000000000000000000000000000000000000000000000000 B!
b0000000000000000000000000000000000000000000000000000000000000000 D!
b0000000000000000000000000000000000000000000000000000000000000000 F!
b0000000000000000000000000000000000000000000000000000000000000000 H!
b0000000000000000000000000000000000000000000000000000000000000000 J!
b0000000000000000000000000000000000000000000000000000000000000000 L!
b0000000000000000000000000000000000000000000000000000000000000000 N!
b0000000000000000000000000000000000000000000000000000000000000000 P!
b0000000000000000000000000000000000000000000000000000000000000000 R!
b0000000000000000000000000000000000000000000000000000000000000000 T!
b0000000000000000000000000000000000000000000000000000000000000000 V!
b0000000000000000000000000000000000000000000000000000000000000000 X!
b0000000000000000000000000000000000000000000000000000000000000000 Z!
b0000000000000000000000000000000000000000000000000000000000000000 \!
b0000000000000000000000000000000000000000000000000000000000000000 ^!
b0000000000000000000000000000000000000000000000000000000000000000 `!
b0000000000000000000000000000000000000000000000000000000000000000 b!
b0000000000000000000000000000000000000000000000000000000000000000 d!
b0000000000000000000000000000000000000000000000000000000000000000 f!
b0000000000000000000000000000000000000000000000000000000000000000 h!
b0000000000000000000000000000000000000000000000000000000000000000 j!
b0000000000000000000000000000000000000000000000000000000000000000 l!
b0000000000000000000000000000000000000000000000000000000000000000 n!
b0000000000000000000000000000000000000000000000000000000000000000 p!
b0000000000000000000000000000000000000000000000000000000000000000 r!
b0000000000000000000000000000000000000000000000000000000000000000 t!
b0000000000000000000000000000000000000000000000000000000000000000 v!
b0000000000000000000000000000000000000000000000000000000000000000 x!
0z!
b0000000000000000000000000000000000000000000000000000000000000100 {!
b000 }!
b0000000000000000000000000000000000000000000000000000000000000000 ~!
0""
0#"
0$"
b00000000000000000010000100010111 %"
b0000000000000000000000000000000000000000000000000000000000000000 &"
b00000000000000000010000000000000 ("
b0000000000000000000000000000000000000000000000000000000000000000 )"
b00000000000000000000000000000000 +"
b0000000000000000000000000000000000000000000000000000000000000000 ,"
b00000000000000000001000000000000 ."
b00000000000000000000000000000000 /"
b00000000000000000000000000000000 0"
b00000000000000000000000000001010 1"
b00000000000000000010011100010000 2"
b00000000000000000001000000000000 3"
b00000000000000000010000000000000 4"
15"
b0000000000000000000000000000000000000000000000000000000000000000 6"
b0111010001100101011100110111010000101110011010000110010101111000 8"
b00000000000000000000000001000000 :"
b00000000000000000000000000100000 ;"
b0000011 <"
b0100011 ="
b1100011 >"
b1101111 ?"
b1100111 @"
b0010011 A"
b0011011 B"
b0110011 C"
b0111011 D"
b0110111 E"
b0010111 F"
b1110011 G"
b000 H"
b001 I"
b100 J"
b101 K"
b110 L"
b111 M"
b010 N"
b011 O"
b0000000 P"
b0100000 Q"
b0010000 R"
b0000100 S"
b000010 T"
b00000000000000000000000000010011 U"
#1425000

b00000000000000000000000000100000 +"
#10000
0#"
#15000
1#"
#20000
0#"
#25000
1#"
#30000
0#"
#35000
1#"
#40000
0#"
#45000
b0000000000000000000000000000000000000000000000000000000000000100 #
b00000000000000000000000000000001 ,
b0000000000000000000000000000000000000000000000000000000000000000000000000000000000100001000101111 -
b0000000000000000000000000000000000000000000000000010000000000000 5
b00010 9
b010 :
b000000101000100000000 ;
1,!
b011 .!
0/!
b00000000000000000010000100010111 0!
b0010111 1!
b0000000000000000000000000000000000000000000000000000000000000010 4!
b0000000000000000000000000000000000000000000000000000000000000010 6!
b0000000000000000000000000000000000000000000000000010000000000000 8!
b0000000000000000000000000000000000000000000000000010000000000000 :!
b0000000000000000000000000000000000000000000000000000000000001000 {!
1#"
1$"
b00001000000000010000000100010011 %"
#50000
0#"
#55000
b0000000000000000000000000000000000000000000000000000000000001000 #
b00000000000000000000000000000010 ,
b0000000000000000000000000000000000000000000000000000000000000100000010000000000100000001000100111 -
b0000000000000000000000000000000000000000000000000000000010000000 5
b00010 7
b000 :
b000000001000100000000 ;
b00000000000000000000000000000000000000000000000000000000000000000000000000000000000000000000000000000000000000000000000000000000000000000000000000000000000000000000000000000000000000000000000000000000000000000000000000000000000000000000000000100000000000000000000000000100100000001010001000000001 =
b0000000000000000000000000000000000000000000000000010000000000000 G
b0000000000000000000000000000000000000000000000000010000000000000 I
b0000000000000000000000000000000000000000000000000010000000000000 K
1_
1a
b00010 f
b010 g
1k
1n
b0000000000000000000000000000000000000000000000000010000000000000 q
0s
b0000000000000000000000000000000000000000000000000010000000000000 u
b1111111111111111111111111111111111111111111111111110000000000000 w
1$!
b0000000000000000000000000000000000000000000000000000000000000100 *!
b0000100 -!
b000 .!
b00001000000000010000000100010011 0!
b0010011 1!
b0000000000000000000000000000000000000000000000000000000010000000 2!
b0000000000000000000000000000000000000000000000000000000010000010 4!
b0000000000000000000000000000000000000000000000000000000010000010 6!
b0000000000000000000000000000000000001000000000010000000000000000 8!
b0000000000000000000000000000000000000000000000010000000010000000 :!
b0000000000000000000000000000000000000000000000000000000000001100 {!
1#"
b00000000000000000001001010010111 %"
#60000
0#"
#65000
b0000000000000000000000000000000000000000000000000010000000000000 %
b00000000000000000000000000000011 ,
b00000000000000000000000000000000000000000000000000000000000000000000000000000000000000000000000000000000000000000000000000000000000000000000000000000000000000000000000000000000000000000000000000000000000000000000000000000000000000000000000000000000000000000000000000000000000000000000000000000000 =
b0000000000000000000000000000000000000000000000000000000000000000 G
b0000000000000000000000000000000000000000000000000000000000000000 I
b0000000000000000000000000000000000000000000000000000000000000000 K
b00000000000000000000000000000000000000000000000000000000000000000000000000000000000000000000000000000000000000000010000000000000000000000000000000000000000000000000000000000000000000000000000000010010000100001 O
b00000 f
b000 g
0k
0n
b0000000000000000000000000000000000000000000000000000000000000000 q
1s
b0000000000000000000000000000000000000000000000000000000000000000 u
b0000000000000000000000000000000000000000000000000000000000000000 w
b00010 }
1~
1!!
0$!
1&!
b0000000000000000000000000000000000000000000000000010000000000000 ~!
1#"
#70000
0#"
#75000
b0000000000000000000000000000000000000000000000000000000000000000 %
b00000000000000000000000000000100 ,
b00000000000000000000000000000000000000000000000000000000000000000000000000000000000000000000000000000000000000000000000000000000000000000000000000000000000000000000000000000000000000000000000000000000000000000 O
b0000000000000000000000000000000000000000000000000010000000000000000000000000000000000000000000000000000000000000000000000000000000010011 V
b00010 [
b0000000000000000000000000000000000000000000000000010000000000000 \
1^
b00000 }
0~
0!!
1"!
1#!
0&!
1(!
b0000000000000000000000000000000000000000000000000000000000000000 ~!
1#"
#80000
0#"
#85000
b00000000000000000000000000000101 ,
b0000000000000000000000000000000000000000000000000010000000000000 1
b0000000000000000000000000000000000000000000000000000000000000000000000000000000000000000000000000000000000000000000000000000000000000000 V
b00000 [
b0000000000000000000000000000000000000000000000000000000000000000 \
0^
0_
0a
0"!
0#!
0(!
b0000000000000000000000000000000000000000000000000010000000000000 >!
1#"
#90000
0#"
#95000
b0000000000000000000000000000000000000000000000000000000000001100 #
b00000000000000000000000000000110 ,
b0000000000000000000000000000000000000000000000000000000000001000000000000000000000010010100101111 -
b0000000000000000000000000000000000000000000000000000000000000000 1
b0000000000000000000000000000000000000000000000000001000000000000 5
b00000 7
b00101 9
b001 :
b000000101000100000000 ;
b00000000000000000000000000000000000000000000000000000000000001000000000000000000000000000000000000000000000000000010000000000000000000000000000000000000000000000000000000000000000000000000000000000000000000000000000000000000000000000000000000000000100000000001000000000100000000000010001000000001 =
b0000000000000000000000000000000000000000000000000010000010000000 G
b0000000000000000000000000000000000000000000000000000000010000100 I
b0000000000000000000000000000000000000000000000000010000010000000 K
b0000000000000000000000000000000000000000000000000000000000000100 b
b00010 f
1k
1n
b0000000000000000000000000000000000000000000000000010000000000000 o
b0000000000000000000000000000000000000000000000000000000010000000 q
0s
b0000000000000000000000000000000000000000000000000010000010000000 u
b0000000000000000000000000000000000000000000000000001111110000000 w
b0000000000000000000000000000000000000000000000000000000000001000 *!
b0000000 -!
b011 .!
b00000000000000000001001010010111 0!
b0010111 1!
b0000000000000000000000000000000000000000000000000000000000000000 2!
b0000000000000000000000000000000000000000000000000000000000000101 4!
b0000000000000000000000000000000000000000000000000000100000000100 6!
b0000000000000000000000000000000000000000000000000001000000000000 8!
b0000000000000000000000000000000000000000000000000001000000000000 :!
b0000000000000000000000000000000000000000000000000000000000010000 {!
1#"
b00000111000000101000001010010011 %"
#100000
0#"
#105000
b0000000000000000000000000000000000000000000000000000000000010000 #
b0000000000000000000000000000000000000000000000000010000010000000 %
b00000000000000000000000000000111 ,
b0000000000000000000000000000000000000000000000000000000000001100000001110000001010000010100100111 -
b0000000000000000000000000000000000000000000000000000000001110000 5
b00101 7
b10000 8
b000 :
b000000001000100000000 ;
b00000000000000000000000000000000000000000000000000000000000010000000000000000000000000000000000000000000000000000000000000000000000000000000000000000000000000000000000000000000000000000000000000000000000000000000000000000000000000000000000000010000000000000000000000001010010000001010001000000001 =
b0000000000000000000000000000000000000000000000000001000000001000 G
b0000000000000000000000000000000000000000000000000001000000001000 I
b0000000000000000000000000000000000000000000000000001000000000000 K
b00000000000000000000000000000000000000000000000000000000000001000000000000000000000000000000000000000000000000000010000010000000000000000000000000000000000000000000000000000000000000000000000000010000000100001 O
1_
1a
b0000000000000000000000000000000000000000000000000000000000001000 b
b00101 f
b001 g
b0000000000000000000000000000000000000000000000000000000000001000 o
b0000000000000000000000000000000000000000000000000001000000000000 q
b0000000000000000000000000000000000000000000000000001000000001000 u
b1111111111111111111111111111111111111111111111111111000000001000 w
b00010 }
1~
1!!
1$!
b0000000000000000000000000000000000000000000000000000000000001100 *!
b0000011 -!
b000 .!
b00000111000000101000001010010011 0!
b0010011 1!
b0000000000000000000000000000000000000000000000000000000001110000 2!
b0000000000000000000000000000000000000000000000000000000001100101 4!
b0000000000000000000000000000000000000000000000000000100001100100 6!
b0000000000000000000000000000000000000111000000101000000000000000 8!
b0000000000000000000000000000000000000000000000101000000001110000 :!
b0000000000000000000000000000000000000000000000000000000000010100 {!
b0000000000000000000000000000000000000000000000000010000010000000 ~!
1#"
b00000000000000000001001100010111 %"
#110000
0#"
#115000
b0000000000000000000000000000000000000000000000000001000000001000 %
b00000000000000000000000000001000 ,
b00000000000000000000000000000000000000000000000000000000000000000000000000000000000000000000000000000000000000000000000000000000000000000000000000000000000000000000000000000000000000000000000000000000000000000000000000000000000000000000000000000000000000000000000000000000000000000000000000000000 =
b0000000000000000000000000000000000000000000000000000000000000000 G
b0000000000000000000000000000000000000000000000000000000000000000 I
b0000000000000000000000000000000000000000000000000000000000000000 K
b00000000000000000000000000000000000000000000000000000000000010000000000000000000000000000000000000000000000000000001000000001000000000000000000000000000000000000000000000000000000000000000000000101001000100001 O
b0000000000000000000000000000000000000000000000000010000010000000000000000000000000000000000000000000000000000000000000000000000000010011 V
b00010 [
b0000000000000000000000000000000000000000000000000010000010000000 \
1^
b0000000000000000000000000000000000000000000000000000000000000000 b
b00000 f
b000 g
0k
0n
b0000000000000000000000000000000000000000000000000000000000000000 o
b0000000000000000000000000000000000000000000000000000000000000000 q
1s
b0000000000000000000000000000000000000000000000000000000000000000 u
b0000000000000000000000000000000000000000000000000000000000000000 w
b00101 }
1"!
1#!
0$!
1&!
b0000000000000000000000000000000000000000000000000001000000001000 ~!
1#"
#120000
0#"
#125000
b0000000000000000000000000000000000000000000000000000000000000000 %
b00000000000000000000000000001001 ,
b00000000000000000000000000000000000000000000000000000000000000000000000000000000000000000000000000000000000000000000000000000000000000000000000000000000000000000000000000000000000000000000000000000000000000000 O
b0000000000000000000000000000000000000000000000000001000000001000000000000000000000000000000000000000000000000000000000000000000000101011 V
b00101 [
b0000000000000000000000000000000000000000000000000001000000001000 \
b00000 }
0~
0!!
0&!
1(!
b0000000000000000000000000000000000000000000000000010000010000000 >!
b0000000000000000000000000000000000000000000000000000000000000000 ~!
1#"
#130000
0#"
#135000
b00000000000000000000000000001010 ,
b0000000000000000000000000000000000000000000000000001000000001000 1
b0000000000000000000000000000000000000000000000000000000000000000000000000000000000000000000000000000000000000000000000000000000000000000 V
b00000 [
b0000000000000000000000000000000000000000000000000000000000000000 \
0^
0_
0a
0"!
0#!
0(!
b0000000000000000000000000000000000000000000000000001000000001000 D!
1#"
#140000
0#"
